<?xml version="1.0" standalone="no"?>
<!DOCTYPE svg PUBLIC "-//W3C//DTD SVG 20010904//EN"
 "http://www.w3.org/TR/2001/REC-SVG-20010904/DTD/svg10.dtd">
<svg version="1.0" xmlns="http://www.w3.org/2000/svg"
 width="1936.000000pt" height="532.000000pt" viewBox="0 0 1936.000000 532.000000"
 preserveAspectRatio="xMidYMid meet">
<metadata>
Created by potrace 1.16, written by Peter Selinger 2001-2019
</metadata>
<g transform="translate(0.000000,532.000000) scale(0.100000,-0.100000)"
fill="#000000" stroke="none">
<path d="M1315 4870 c-402 -79 -711 -372 -823 -778 l-27 -97 -3 -1763 -2
-1762 1728 0 c1476 0 1742 2 1814 15 412 72 728 362 850 780 l23 80 3 1773 2
1772 -1737 -1 c-1625 -1 -1744 -2 -1828 -19z m1156 -1730 c203 -148 372 -270
377 -270 4 0 95 39 202 86 517 229 770 336 825 349 82 20 148 19 230 -4 78
-22 125 -62 125 -108 0 -34 -65 -97 -145 -140 -33 -17 -454 -203 -935 -413
-481 -210 -1034 -451 -1228 -536 -195 -85 -357 -152 -361 -150 -14 9 -356 506
-356 518 0 6 54 26 119 44 l119 33 116 -83 c64 -45 122 -86 129 -90 11 -7 603
243 625 264 5 4 -112 163 -258 354 -147 191 -266 349 -264 350 5 5 270 63 292
65 10 0 185 -120 388 -269z"/>
<path d="M6983 4230 c-328 -35 -554 -198 -604 -438 -19 -91 -7 -237 24 -305
79 -172 201 -241 597 -336 202 -48 268 -72 305 -111 55 -57 31 -135 -53 -172
-68 -30 -247 -37 -362 -13 -109 22 -238 68 -317 111 -34 19 -65 34 -71 34 -5
0 -44 -79 -87 -176 l-79 -177 25 -20 c65 -54 285 -130 455 -158 117 -19 390
-16 489 5 247 54 419 180 486 354 31 80 38 237 14 318 -22 77 -65 144 -129
199 -91 77 -186 115 -461 180 -300 72 -355 100 -355 181 0 94 92 144 263 144
56 0 133 -7 170 -15 53 -11 199 -64 302 -110 6 -3 43 77 84 177 72 175 74 181
55 195 -69 53 -285 115 -458 132 -120 12 -184 12 -293 1z"/>
<path d="M12817 4230 c-422 -48 -742 -345 -803 -743 -44 -283 37 -549 230
-754 264 -283 778 -364 1163 -183 330 154 517 467 500 835 -11 243 -91 423
-261 590 -89 87 -150 127 -276 182 -146 63 -374 93 -553 73z m213 -410 c272
-43 434 -314 365 -609 -51 -214 -256 -367 -465 -346 -246 24 -410 193 -427
440 -7 103 8 182 51 270 59 120 160 204 286 237 77 20 104 21 190 8z"/>
<path d="M8280 3345 l0 -855 245 0 245 0 0 213 0 213 88 92 87 92 239 -305
239 -305 289 0 289 0 -72 93 c-352 455 -654 849 -657 856 -1 4 37 50 85 102
158 171 528 573 567 617 l38 42 -274 0 -274 0 -319 -344 -320 -343 -3 343 -2
344 -245 0 -245 0 0 -855z"/>
<path d="M10019 4182 c6 -11 152 -256 326 -547 l315 -528 0 -308 0 -309 245 0
245 0 0 302 0 302 257 430 c141 237 290 486 330 554 l72 122 -242 0 -242 0
-195 -330 c-107 -181 -198 -329 -202 -327 -4 1 -94 148 -201 327 l-193 325
-262 3 c-254 2 -263 2 -253 -16z"/>
<path d="M15109 3903 c70 -164 235 -549 365 -856 l238 -557 245 2 245 3 364
850 c200 468 364 851 364 853 0 1 -110 1 -245 0 l-246 -3 -229 -539 c-126
-296 -231 -542 -232 -547 -2 -4 -106 239 -232 542 l-228 549 -268 0 -268 0
127 -297z"/>
<path d="M17270 3345 l0 -855 240 0 240 0 2 443 3 443 365 -440 366 -441 207
-3 207 -2 0 855 0 855 -240 0 -240 0 -2 -446 -3 -446 -369 446 -370 446 -203
0 -203 0 0 -855z"/>
<path d="M14392 2990 c-100 -51 -144 -126 -144 -246 0 -165 109 -274 274 -274
95 0 141 16 198 67 66 60 94 131 88 228 -5 80 -29 134 -80 181 -55 52 -95 67
-188 72 -80 3 -89 2 -148 -28z"/>
<path d="M9405 1865 c-51 -50 -13 -125 64 -125 31 0 44 6 60 26 12 15 21 37
21 49 0 12 -9 34 -21 49 -28 36 -89 37 -124 1z"/>
<path d="M16519 1871 c-17 -13 -23 -29 -23 -56 0 -48 31 -75 84 -75 70 0 106
82 57 128 -29 28 -86 29 -118 3z"/>
<path d="M10240 1495 l0 -365 70 0 70 0 0 74 0 74 40 32 c22 17 43 29 47 27 5
-3 44 -50 88 -106 l80 -100 78 0 c42 -1 77 2 77 7 0 4 -51 72 -114 152 l-114
145 104 105 c57 58 104 109 104 113 0 4 -35 7 -77 7 l-78 -1 -115 -109 -115
-108 -3 209 -2 209 -70 0 -70 0 0 -365z"/>
<path d="M13840 1495 l0 -365 64 0 64 0 4 158 c4 171 11 199 61 236 21 15 43
21 83 21 45 0 58 -4 81 -28 l28 -27 3 -181 3 -180 67 3 67 3 -1 186 c-1 170
-3 190 -23 231 -13 28 -38 57 -63 74 -36 26 -52 29 -127 32 -75 3 -92 0 -133
-21 l-48 -24 0 123 0 124 -65 0 -65 0 0 -365z"/>
<path d="M15890 1495 l0 -365 70 0 70 0 0 73 0 74 42 33 41 34 34 -40 c18 -21
57 -69 86 -106 l52 -67 83 -1 83 0 -20 28 c-11 15 -65 83 -120 152 l-99 125
104 105 c57 58 104 109 104 113 0 4 -35 7 -77 7 l-78 -1 -115 -109 -115 -109
-3 210 -2 209 -70 0 -70 0 0 -365z"/>
<path d="M6340 1814 c0 -4 61 -107 135 -229 l135 -222 0 -117 0 -116 65 0 65
0 0 120 0 119 123 203 c68 112 129 213 136 226 12 22 11 22 -57 22 l-68 0 -86
-142 c-48 -79 -93 -151 -100 -161 -12 -16 -23 0 -108 142 l-95 160 -72 1 c-40
0 -73 -3 -73 -6z"/>
<path d="M9000 1710 l0 -60 -40 0 -40 0 0 -50 0 -50 39 0 39 0 4 -157 c3 -142
5 -162 25 -193 25 -41 63 -65 116 -74 50 -9 123 2 148 23 19 15 19 17 3 59
-16 39 -20 43 -43 36 -41 -12 -81 -8 -99 10 -14 14 -18 42 -20 156 l-4 140 71
0 71 0 0 50 0 50 -70 0 -70 0 0 60 0 60 -65 0 -65 0 0 -60z"/>
<path d="M11470 1710 l0 -60 -45 0 -45 0 0 -50 0 -50 45 0 45 0 0 -152 c0
-126 3 -159 18 -188 35 -70 126 -103 222 -80 59 14 68 27 50 73 -19 46 -22 48
-63 36 -37 -10 -72 0 -89 25 -4 6 -8 73 -8 149 l0 137 70 0 70 0 0 50 0 50
-70 0 -70 0 0 60 0 60 -65 0 -65 0 0 -60z"/>
<path d="M12150 1710 l0 -60 -45 0 -45 0 0 -50 0 -50 45 0 45 0 0 -148 c0
-133 2 -152 23 -192 31 -63 74 -85 163 -85 49 1 79 6 96 17 l26 17 -17 46
c-13 38 -19 45 -36 40 -64 -18 -74 -17 -99 8 -25 25 -26 29 -26 162 l0 135 70
0 70 0 0 50 0 50 -70 0 -70 0 0 60 0 60 -65 0 -65 0 0 -60z"/>
<path d="M13440 1710 l0 -60 -40 0 -40 0 0 -50 0 -50 40 0 40 0 1 -117 c1
-189 14 -236 82 -287 33 -24 144 -29 195 -7 37 16 37 17 16 72 -15 37 -19 40
-43 33 -43 -13 -83 -8 -98 12 -9 13 -13 57 -13 156 l0 138 70 0 70 0 0 50 0
50 -70 0 -70 0 0 60 0 60 -70 0 -70 0 0 -60z"/>
<path d="M7131 1643 c-63 -22 -126 -89 -145 -154 -43 -145 8 -275 132 -336 47
-23 70 -28 132 -27 172 0 280 104 280 269 0 117 -52 199 -155 246 -51 23 -181
24 -244 2z m207 -120 c80 -59 81 -197 1 -256 -63 -46 -164 -30 -206 34 -53 80
-31 191 48 232 43 23 119 18 157 -10z"/>
<path d="M7640 1474 c0 -166 2 -190 21 -234 48 -111 206 -153 326 -86 l43 25
0 -25 c0 -23 3 -24 65 -24 l65 0 0 265 0 265 -70 0 -70 0 0 -162 c0 -146 -2
-166 -20 -196 -34 -56 -112 -77 -171 -46 -50 25 -59 63 -59 244 l0 160 -65 0
-65 0 0 -186z"/>
<path d="M8310 1395 l0 -265 65 0 65 0 0 150 c0 106 4 161 14 184 18 43 72 76
125 76 l41 0 0 60 0 60 -40 0 c-44 0 -104 -21 -132 -47 -17 -15 -18 -14 -18
15 l0 32 -60 0 -60 0 0 -265z"/>
<path d="M9400 1395 l0 -265 65 0 65 0 0 265 0 265 -65 0 -65 0 0 -265z"/>
<path d="M9801 1643 c-61 -22 -124 -87 -146 -152 -37 -113 -2 -243 83 -308 56
-42 111 -58 198 -57 58 1 81 7 123 30 48 25 91 69 91 91 0 4 -21 21 -46 36
l-47 28 -26 -24 c-38 -36 -65 -47 -112 -47 -79 0 -148 72 -149 155 0 47 40
116 80 137 63 33 126 23 181 -29 l26 -24 47 28 c25 15 46 32 46 36 0 23 -45
68 -92 91 -44 22 -65 26 -132 25 -46 0 -100 -7 -125 -16z"/>
<path d="M10944 1636 c-156 -73 -194 -306 -70 -431 56 -56 126 -80 228 -79 62
1 87 6 132 28 77 38 82 51 40 101 -29 35 -36 38 -51 27 -39 -27 -85 -42 -133
-42 -58 0 -99 18 -129 56 -42 53 -39 54 180 54 l202 0 -5 68 c-6 80 -32 136
-84 182 -54 47 -93 60 -181 60 -61 0 -89 -5 -129 -24z m193 -95 c38 -18 73
-61 73 -91 0 -6 -49 -10 -140 -10 l-140 0 11 27 c14 38 38 63 74 79 41 18 73
17 122 -5z"/>
<path d="M12640 1639 c-98 -44 -150 -128 -150 -244 0 -165 109 -269 280 -269
168 0 280 107 280 269 0 107 -52 194 -142 239 -44 22 -65 26 -137 25 -63 0
-98 -6 -131 -20z m200 -107 c40 -19 80 -88 80 -137 0 -49 -40 -118 -80 -137
-105 -53 -220 19 -220 137 0 118 115 190 220 137z"/>
<path d="M14613 1634 c-61 -29 -107 -86 -128 -158 -19 -62 -19 -100 -1 -160
24 -78 61 -122 134 -158 57 -28 76 -33 142 -32 41 0 93 6 115 13 41 14 105 56
105 70 0 4 -15 25 -33 45 l-32 38 -49 -26 c-92 -49 -204 -28 -241 44 -8 16
-15 31 -15 35 0 3 90 5 200 5 l200 0 0 63 c-1 102 -54 187 -145 228 -63 29
-185 25 -252 -7z m197 -96 c29 -15 51 -35 62 -58 l18 -35 -136 -3 c-75 -1
-139 0 -143 3 -12 12 35 79 69 97 46 24 76 23 130 -4z"/>
<path d="M15437 1634 c-66 -35 -89 -74 -84 -146 5 -91 41 -118 196 -149 103
-21 127 -35 117 -67 -15 -47 -140 -53 -234 -12 -24 11 -46 20 -48 20 -2 0 -15
-23 -29 -50 l-26 -51 43 -19 c59 -26 172 -43 238 -35 31 4 78 18 104 33 64 35
89 79 83 146 -6 73 -49 109 -153 130 -127 26 -159 38 -162 62 -7 52 70 77 158
52 30 -9 64 -19 75 -23 17 -5 24 2 43 40 12 26 20 50 17 55 -13 20 -112 40
-199 40 -77 -1 -98 -5 -139 -26z"/>
<path d="M16510 1395 l0 -265 65 0 65 0 0 265 0 265 -65 0 -65 0 0 -265z"/>
<path d="M16894 1636 c-156 -73 -194 -306 -70 -431 56 -56 126 -80 228 -79 62
1 87 6 132 28 77 38 82 52 40 101 -30 34 -37 38 -52 27 -38 -27 -84 -42 -132
-42 -58 0 -99 18 -129 56 -42 53 -39 54 180 54 l202 0 -5 68 c-6 80 -32 136
-84 182 -54 47 -93 60 -181 60 -61 0 -89 -5 -129 -24z m193 -95 c38 -18 73
-61 73 -91 0 -6 -49 -10 -140 -10 -77 0 -140 4 -140 9 0 21 49 78 80 93 45 23
75 22 127 -1z"/>
<path d="M17450 1637 c-61 -30 -90 -76 -90 -143 0 -45 5 -59 31 -88 32 -37 61
-49 169 -67 74 -13 120 -33 120 -53 0 -7 -9 -21 -21 -32 -31 -28 -146 -25
-217 6 -29 12 -54 21 -56 19 -2 -2 -14 -24 -26 -48 -22 -43 -22 -45 -4 -58 57
-42 249 -62 327 -34 91 31 139 110 117 191 -18 67 -58 89 -223 121 -94 18
-120 62 -56 94 39 21 89 19 160 -5 34 -12 63 -20 64 -18 14 16 44 91 40 98
-13 20 -111 40 -199 40 -73 -1 -100 -5 -136 -23z"/>
<path d="M18200 1505 l0 -45 350 0 350 0 0 45 0 45 -350 0 -350 0 0 -45z"/>
</g>
</svg>
